…
You can query a few columns of your own. It seems quite messy on the JavaScript when you open it in R, but the package will help you clean them.

# Glance at the first index
osm_json %>% 
  enter_object('contributor') %>% 
  gather_object('index.1') %>% 
  spread_all() %>% 
  append_values_string() 

## Warning in spread_all(.): no JSON records are objects, returning .x

## # A tbl_json: 330 x 4 tibble with a "JSON" attribute
##    ..JSON        document.id index.1       string                               
##    <chr>               <int> <chr>         <chr>                                
##  1 "\"!i!\""               1 name          "!i!"                                
##  2 "\"25720\""             1 uid           "25720"                              
##  3 "\"2008-01-3…           1 since         "2008-01-30"                         
##  4 "\"55\""                1 traces        "55"                                 
##  5 "\"0\""                 1 blocks        "0"                                  
##  6 "\"0\""                 1 blocks_active "0"                                  
##  7 "\"https://w…           1 img           "https://www.openstreetmap.org/rails…
##  8 "\"\""                  1 roles         ""                                   
##  9 "\"0\""                 1 blocks_issued "0"                                  
## 10 "\"0\""                 1 blocks_activ… "0"                                  
## # … with 320 more rows

osm_json %>%
  as_tbl_json(drop.nulljson = T) %>% 
  enter_object('changesets') %>%
  spread_values(days = jstring(days)) 

## # A tbl_json: 30 x 3 tibble with a "JSON" attribute
##    ..JSON                    document.id days                              
##    <chr>                           <int> <chr>                             
##  1 "{\"no\":\"6298\",\"c..."           1 948,736,877,886,874,824,1153      
##  2 "{\"no\":\"1268\",\"c..."           2 303,168,124,188,92,140,253        
##  3 "{\"no\":\"99\",\"cha..."           3 23,7,2,2,10,2,53                  
##  4 "{\"no\":\"678\",\"ch..."           4 130,143,89,131,88,60,37           
##  5 "{\"no\":\"919\",\"ch..."           5 136,187,103,140,152,123,78        
##  6 "{\"no\":\"1602\",\"c..."           6 93,324,343,337,284,127,94         
##  7 "{\"no\":\"5099\",\"c..."           7 866,715,635,678,616,649,940       
##  8 "{\"no\":\"686\",\"ch..."           8 96,140,104,79,110,74,83           
##  9 "{\"no\":\"574\",\"ch..."           9 36,63,88,100,115,92,80            
## 10 "{\"no\":\"15080\",\"..."          10 2406,2317,2068,2220,2110,1849,2110
## # … with 20 more rows
…
survey %>% 
  slice(1:30) %>% 
  mutate(id = row_number()) %>% 
  select(id, gender, age) -> survey_profile

survey_profile

## # A tibble: 30 x 3
##       id gender age  
##    <int> <chr>  <chr>
##  1     1 Male   55-59
##  2     2 Male   30-34
##  3     3 Male   30-34
##  4     4 Male   45-49
##  5     5 Male   30-34
##  6     6 Male   40-44
##  7     7 Male   30-34
##  8     8 Male   35-39
##  9     9 Male   30-34
## 10    10 Male   25-29
## # … with 20 more rows

Data Query

survey %>% 
  left_join(osm_tibble, by = c("username" = "contributor.name")) %>% 
  select(username, gender, age, country_residence, nationality, education, 
         starts_with("contributor")) 

## # A tibble: 315 x 16
##    username  gender age   country_residen… nationality education contributor.uid
##    <chr>     <chr>  <chr> <chr>            <chr>       <chr>     <chr>          
##  1 - no ! W… Male   55-59 German           German      Universi… <NA>           
##  2 !i!       Male   30-34 Germany          german      Universi… 25720          
##  3 <0174     Male   30-34 Czech Republic   Czech       Universi… 172147         
##  4 24dakenlo Male   45-49 Japan            Japan       PhD       3354215        
##  5 3mg4      Male   30-34 Austria          Austria     Universi… <NA>           
##  6 ACM       Male   40-44 UK               British     Universi… 20372          
##  7 ACS1986   Male   30-34 England          British     Universi… 2018957        
##  8 adamfran… Male   35-39 U.S.A.           U.S.A.      Universi… <NA>           
##  9 adrienan… Male   30-34 French Guiana    French      Universi… <NA>           
## 10 AkuAnakT… Male   25-29 Malaysia         Malaysian   A Levels… 1407839        
## # … with 305 more rows, and 9 more variables: contributor.since <chr>,
## #   contributor.traces <chr>, contributor.blocks <chr>,
## #   contributor.blocks_active <chr>, contributor.img <chr>,
## #   contributor.roles <chr>, contributor.blocks_issued <chr>,
## #   contributor.blocks_active_issued <chr>, contributor.organised_editing <chr>
…
data.frame(days) %>% 
  mutate(days = gsub("\\|$","", days)) %>%
  separate_rows(days, sep = "[|]") %>%
  separate(days, c("Sun", "Mon", "Tue", "Wed", "Thu", "Fri", "Sat"), ",") -> days_df

survey_profile %>% 
  bind_cols(days_df)

## # A tibble: 30 x 10
##       id gender age   Sun   Mon   Tue   Wed   Thu   Fri   Sat  
##    <int> <chr>  <chr> <chr> <chr> <chr> <chr> <chr> <chr> <chr>
##  1     1 Male   55-59 948   736   877   886   874   824   1153 
##  2     2 Male   30-34 303   168   124   188   92    140   253  
##  3     3 Male   30-34 23    7     2     2     10    2     53   
##  4     4 Male   45-49 130   143   89    131   88    60    37   
##  5     5 Male   30-34 136   187   103   140   152   123   78   
##  6     6 Male   40-44 93    324   343   337   284   127   94   
##  7     7 Male   30-34 866   715   635   678   616   649   940  
##  8     8 Male   35-39 96    140   104   79    110   74    83   
##  9     9 Male   30-34 36    63    88    100   115   92    80   
## 10    10 Male   25-29 2406  2317  2068  2220  2110  1849  2110 
## # … with 20 more rows
…
data.frame(hours) %>% 
  mutate(hours = gsub("\\|$","", hours)) %>%
  separate_rows(hours, sep = "[|]") %>%
  separate(hours, c("h01", "h02", "h03", "h04", "h05", "h06",
                    "h07", "h08", "h09", "h10", "h11", "h12",
                    "h13", "h14", "h15", "h16", "h17", "h18",
                    "h19", "h20", "h21", "h22", "h23", "h24"
                    ), ",") -> hours_df

survey_profile %>% 
  bind_cols(hours_df)

## # A tibble: 30 x 27
##       id gender age   h01   h02   h03   h04   h05   h06   h07   h08   h09  
##    <int> <chr>  <chr> <chr> <chr> <chr> <chr> <chr> <chr> <chr> <chr> <chr>
##  1     1 Male   55-59 16    12    13    8     9     60    229   297   400  
##  2     2 Male   30-34 0     0     0     0     0     0     19    16    37   
##  3     3 Male   30-34 1     7     0     0     0     3     4     7     18   
##  4     4 Male   45-49 18    2     0     0     0     0     2     26    32   
##  5     5 Male   30-34 32    25    7     1     6     4     8     10    22   
##  6     6 Male   40-44 41    56    64    67    37    39    33    13    3    
##  7     7 Male   30-34 166   174   236   277   395   336   343   268   178  
##  8     8 Male   35-39 1     0     0     0     0     0     3     47    45   
##  9     9 Male   30-34 21    21    10    23    64    74    93    95    40   
## 10    10 Male   25-29 920   770   651   826   774   575   573   652   727  
## # … with 20 more rows, and 15 more variables: h10 <chr>, h11 <chr>, h12 <chr>,
## #   h13 <chr>, h14 <chr>, h15 <chr>, h16 <chr>, h17 <chr>, h18 <chr>,
## #   h19 <chr>, h20 <chr>, h21 <chr>, h22 <chr>, h23 <chr>, h24 <chr>
