OSM Exploratory Data Analysis
…
2.3 Select variables

Using enter_object(), gather_object(), and spread_values(), you can create and customise data.frames.

# Glance at the first index
osm_json %>% 
  enter_object('contributor') %>% 
  spread_values(name = jstring(name),
                 uid = jstring(uid),
                traces = jstring(traces),
                blocks = jstring(blocks)
                )

## # A tbl_json: 57 x 6 tibble with a "JSON" attribute
##    ..JSON                    document.id name         uid     traces blocks
##    <chr>                           <int> <chr>        <chr>   <chr>  <chr> 
##  1 "{\"name\":\"!i!\",\"..."           1 !i!          25720   55     0     
##  2 "{\"name\":\"<0174\"..."            2 <0174        172147  204    0     
##  3 "{\"name\":\"24dake..."             3 24dakenlo    3354215 0      0     
##  4 "{\"name\":\"ACM\",\"..."           4 ACM          20372   0      0     
##  5 "{\"name\":\"ACS198..."             5 ACS1986      2018957 54     0     
##  6 "{\"name\":\"Adam F..."             6 Adam Franco  27832   36     0     
##  7 "{\"name\":\"AkuAna..."             7 AkuAnakTimur 1407839 1388   0     
##  8 "{\"name\":\"alan_g..."             8 alan_gr      5307206 3      0     
##  9 "{\"name\":\"alarob..."             9 alarobric    525369  22     0     
## 10 "{\"name\":\"Alaska..."            10 AlaskaDave   473104  881    0     
## #  with 47 more rows
…
